Library\Bee\artifacts\movedfrom\UnityEngine.AccessibilityModule.dll_1264731909231383308.movedfrom
Library\Bee\artifacts\movedfrom\UnityEngine.AIModule.dll_11224158919113920430.movedfrom
Library\Bee\artifacts\movedfrom\UnityEngine.AndroidJNIModule.dll_18278225831314189420.movedfrom
Library\Bee\artifacts\movedfrom\UnityEngine.AnimationModule.dll_15362945858081246898.movedfrom
Library\Bee\artifacts\movedfrom\UnityEngine.AssetBundleModule.dll_8522128448287182880.movedfrom
Library\Bee\artifacts\movedfrom\UnityEngine.AudioModule.dll_8470437676043023140.movedfrom
Library\Bee\artifacts\movedfrom\UnityEngine.ClothModule.dll_15885716694979449352.movedfrom
Library\Bee\artifacts\movedfrom\UnityEngine.CoreModule.dll_10272549584675011525.movedfrom
Library\Bee\artifacts\movedfrom\UnityEngine.CrashReportingModule.dll_6084625533990411389.movedfrom
Library\Bee\artifacts\movedfrom\UnityEngine.DirectorModule.dll_3191854771537613602.movedfrom
Library\Bee\artifacts\movedfrom\UnityEngine.dll_8549891460752802496.movedfrom
Library\Bee\artifacts\movedfrom\UnityEngine.DSPGraphModule.dll_3575049320359224387.movedfrom
Library\Bee\artifacts\movedfrom\UnityEngine.GameCenterModule.dll_2879655759260081501.movedfrom
Library\Bee\artifacts\movedfrom\UnityEngine.GIModule.dll_3747137960567388104.movedfrom
Library\Bee\artifacts\movedfrom\UnityEngine.GridModule.dll_7782371175140200892.movedfrom
Library\Bee\artifacts\movedfrom\UnityEngine.HotReloadModule.dll_6232106545949239860.movedfrom
Library\Bee\artifacts\movedfrom\UnityEngine.ImageConversionModule.dll_4003977989579070399.movedfrom
Library\Bee\artifacts\movedfrom\UnityEngine.IMGUIModule.dll_12532578328715118341.movedfrom
Library\Bee\artifacts\movedfrom\UnityEngine.InputLegacyModule.dll_543187101682386449.movedfrom
Library\Bee\artifacts\movedfrom\UnityEngine.InputModule.dll_15853464400898381768.movedfrom
Library\Bee\artifacts\movedfrom\UnityEngine.JSONSerializeModule.dll_8188885752114967446.movedfrom
Library\Bee\artifacts\movedfrom\UnityEngine.LocalizationModule.dll_14509253752481206799.movedfrom
Library\Bee\artifacts\movedfrom\UnityEngine.ParticleSystemModule.dll_12070552981332207627.movedfrom
Library\Bee\artifacts\movedfrom\UnityEngine.PerformanceReportingModule.dll_6474482328410166660.movedfrom
Library\Bee\artifacts\movedfrom\UnityEngine.Physics2DModule.dll_2439286119183599175.movedfrom
Library\Bee\artifacts\movedfrom\UnityEngine.PhysicsModule.dll_5643409926948809333.movedfrom
Library\Bee\artifacts\movedfrom\UnityEngine.ProfilerModule.dll_6814500628467554863.movedfrom
Library\Bee\artifacts\movedfrom\UnityEngine.RuntimeInitializeOnLoadManagerInitializerModule.dll_1519876043434575120.movedfrom
Library\Bee\artifacts\movedfrom\UnityEngine.ScreenCaptureModule.dll_10055537109768216568.movedfrom
Library\Bee\artifacts\movedfrom\UnityEngine.SharedInternalsModule.dll_13520434563738097423.movedfrom
Library\Bee\artifacts\movedfrom\UnityEngine.SpriteMaskModule.dll_1234841958724825815.movedfrom
Library\Bee\artifacts\movedfrom\UnityEngine.SpriteShapeModule.dll_10350921239593928746.movedfrom
Library\Bee\artifacts\movedfrom\UnityEngine.StreamingModule.dll_9928487936939361776.movedfrom
Library\Bee\artifacts\movedfrom\UnityEngine.SubstanceModule.dll_7382569077620376574.movedfrom
Library\Bee\artifacts\movedfrom\UnityEngine.SubsystemsModule.dll_8921754667974810346.movedfrom
Library\Bee\artifacts\movedfrom\UnityEngine.TerrainModule.dll_7536746336267318115.movedfrom
Library\Bee\artifacts\movedfrom\UnityEngine.TerrainPhysicsModule.dll_12105078553106293400.movedfrom
Library\Bee\artifacts\movedfrom\UnityEngine.TextCoreModule.dll_14197196415116051250.movedfrom
Library\Bee\artifacts\movedfrom\UnityEngine.TextRenderingModule.dll_13027756779205140461.movedfrom
Library\Bee\artifacts\movedfrom\UnityEngine.TilemapModule.dll_546147618828162156.movedfrom
Library\Bee\artifacts\movedfrom\UnityEngine.TLSModule.dll_15554720446140225033.movedfrom
Library\Bee\artifacts\movedfrom\UnityEngine.UIElementsModule.dll_9227543592040306401.movedfrom
Library\Bee\artifacts\movedfrom\UnityEngine.UIElementsNativeModule.dll_11462579549770092952.movedfrom
Library\Bee\artifacts\movedfrom\UnityEngine.UIModule.dll_10896414488904881498.movedfrom
Library\Bee\artifacts\movedfrom\UnityEngine.UmbraModule.dll_17321326065180204695.movedfrom
Library\Bee\artifacts\movedfrom\UnityEngine.UNETModule.dll_2393018153982685502.movedfrom
Library\Bee\artifacts\movedfrom\UnityEngine.UnityAnalyticsModule.dll_14349216929283963399.movedfrom
Library\Bee\artifacts\movedfrom\UnityEngine.UnityConnectModule.dll_17929250202249170171.movedfrom
Library\Bee\artifacts\movedfrom\UnityEngine.UnityCurlModule.dll_599197613359743135.movedfrom
Library\Bee\artifacts\movedfrom\UnityEngine.UnityTestProtocolModule.dll_17558656582668985485.movedfrom
Library\Bee\artifacts\movedfrom\UnityEngine.UnityWebRequestAssetBundleModule.dll_6490243612968733208.movedfrom
Library\Bee\artifacts\movedfrom\UnityEngine.UnityWebRequestAudioModule.dll_15120359928257667100.movedfrom
Library\Bee\artifacts\movedfrom\UnityEngine.UnityWebRequestModule.dll_5273720036430476862.movedfrom
Library\Bee\artifacts\movedfrom\UnityEngine.UnityWebRequestTextureModule.dll_11590459940664332657.movedfrom
Library\Bee\artifacts\movedfrom\UnityEngine.UnityWebRequestWWWModule.dll_17168793499535335725.movedfrom
Library\Bee\artifacts\movedfrom\UnityEngine.VehiclesModule.dll_11821588933438628541.movedfrom
Library\Bee\artifacts\movedfrom\UnityEngine.VFXModule.dll_6394003455926534006.movedfrom
Library\Bee\artifacts\movedfrom\UnityEngine.VideoModule.dll_11139247524302507721.movedfrom
Library\Bee\artifacts\movedfrom\UnityEngine.VRModule.dll_16864289300510071506.movedfrom
Library\Bee\artifacts\movedfrom\UnityEngine.WebGLModule.dll_1511379058896094439.movedfrom
Library\Bee\artifacts\movedfrom\UnityEngine.WindModule.dll_350797622905829934.movedfrom
Library\Bee\artifacts\movedfrom\UnityEngine.XRModule.dll_2074119598521526320.movedfrom