Library\Bee\artifacts\movedfrom\Unity.TextMeshPro.ref.dll_17910996492232077037.movedfrom
Library\Bee\artifacts\movedfrom\Unity.Timeline.ref.dll_2813055142682746333.movedfrom
Library\Bee\artifacts\movedfrom\UnityEngine.UI.ref.dll_14838172302227209134.movedfrom
Library\Bee\artifacts\movedfrom\UnityEngine.AccessibilityModule.dll_4870983783483565658.movedfrom
Library\Bee\artifacts\movedfrom\UnityEngine.AIModule.dll_9848556751092341504.movedfrom
Library\Bee\artifacts\movedfrom\UnityEngine.AndroidJNIModule.dll_16023496181366563006.movedfrom
Library\Bee\artifacts\movedfrom\UnityEngine.AnimationModule.dll_4139348969561955968.movedfrom
Library\Bee\artifacts\movedfrom\UnityEngine.ARModule.dll_4764772339982252489.movedfrom
Library\Bee\artifacts\movedfrom\UnityEngine.AssetBundleModule.dll_8565398277599102382.movedfrom
Library\Bee\artifacts\movedfrom\UnityEngine.AudioModule.dll_1792209235749920626.movedfrom
Library\Bee\artifacts\movedfrom\UnityEngine.ClothModule.dll_9207488254686346838.movedfrom
Library\Bee\artifacts\movedfrom\UnityEngine.CoreModule.dll_15531403681680164183.movedfrom
Library\Bee\artifacts\movedfrom\UnityEngine.CrashReportingModule.dll_6986887353302734159.movedfrom
Library\Bee\artifacts\movedfrom\UnityEngine.DirectorModule.dll_2633588734449479988.movedfrom
Library\Bee\artifacts\movedfrom\UnityEngine.dll_6008210698775594126.movedfrom
Library\Bee\artifacts\movedfrom\UnityEngine.DSPGraphModule.dll_3016783283271090773.movedfrom
Library\Bee\artifacts\movedfrom\UnityEngine.GameCenterModule.dll_624926109312455087.movedfrom
Library\Bee\artifacts\movedfrom\UnityEngine.GIModule.dll_2371535792545809178.movedfrom
Library\Bee\artifacts\movedfrom\UnityEngine.GridModule.dll_13041225272145353550.movedfrom
Library\Bee\artifacts\movedfrom\UnityEngine.HotReloadModule.dll_13455253731139500546.movedfrom
Library\Bee\artifacts\movedfrom\UnityEngine.ImageConversionModule.dll_2829522468706108621.movedfrom
Library\Bee\artifacts\movedfrom\UnityEngine.IMGUIModule.dll_5854349888422015827.movedfrom
Library\Bee\artifacts\movedfrom\UnityEngine.InputLegacyModule.dll_586456930994305951.movedfrom
Library\Bee\artifacts\movedfrom\UnityEngine.InputModule.dll_9175235960605279254.movedfrom
Library\Bee\artifacts\movedfrom\UnityEngine.JSONSerializeModule.dll_11795137626367149796.movedfrom
Library\Bee\artifacts\movedfrom\UnityEngine.LocalizationModule.dll_10706734191581701281.movedfrom
Library\Bee\artifacts\movedfrom\UnityEngine.ParticleSystemModule.dll_12972814800644530397.movedfrom
Library\Bee\artifacts\movedfrom\UnityEngine.PerformanceReportingModule.dll_1106727211260588310.movedfrom
Library\Bee\artifacts\movedfrom\UnityEngine.Physics2DModule.dll_9662433304373859861.movedfrom
Library\Bee\artifacts\movedfrom\UnityEngine.PhysicsModule.dll_9868597790852926595.movedfrom
Library\Bee\artifacts\movedfrom\UnityEngine.ProfilerModule.dll_6256234591379421249.movedfrom
Library\Bee\artifacts\movedfrom\UnityEngine.RuntimeInitializeOnLoadManagerInitializerModule.dll_4015588790621483230.movedfrom
Library\Bee\artifacts\movedfrom\UnityEngine.ScreenCaptureModule.dll_13661788984020398918.movedfrom
Library\Bee\artifacts\movedfrom\UnityEngine.SharedInternalsModule.dll_12345979042865135645.movedfrom
Library\Bee\artifacts\movedfrom\UnityEngine.SpriteMaskModule.dll_17426856382486751017.movedfrom
Library\Bee\artifacts\movedfrom\UnityEngine.SpriteShapeModule.dll_10394191068905848248.movedfrom
Library\Bee\artifacts\movedfrom\UnityEngine.StreamingModule.dll_17151635122129622462.movedfrom
Library\Bee\artifacts\movedfrom\UnityEngine.SubstanceModule.dll_14605716262810637260.movedfrom
Library\Bee\artifacts\movedfrom\UnityEngine.SubsystemsModule.dll_6667025018027183932.movedfrom
Library\Bee\artifacts\movedfrom\UnityEngine.TerrainModule.dll_11761934200171435377.movedfrom
Library\Bee\artifacts\movedfrom\UnityEngine.TerrainPhysicsModule.dll_13007340372418616170.movedfrom
Library\Bee\artifacts\movedfrom\UnityEngine.TextCoreModule.dll_13638930378027917636.movedfrom
Library\Bee\artifacts\movedfrom\UnityEngine.TextRenderingModule.dll_16634008653457322811.movedfrom
Library\Bee\artifacts\movedfrom\UnityEngine.TilemapModule.dll_4771335482732279418.movedfrom
Library\Bee\artifacts\movedfrom\UnityEngine.TLSModule.dll_9881493181073802391.movedfrom
Library\Bee\artifacts\movedfrom\UnityEngine.UIElementsModule.dll_6972813942092679987.movedfrom
Library\Bee\artifacts\movedfrom\UnityEngine.UIElementsNativeModule.dll_14536570552032917674.movedfrom
Library\Bee\artifacts\movedfrom\UnityEngine.UIModule.dll_9520812320883302572.movedfrom
Library\Bee\artifacts\movedfrom\UnityEngine.UmbraModule.dll_10643097624887102181.movedfrom
Library\Bee\artifacts\movedfrom\UnityEngine.UNETModule.dll_7651872250987838160.movedfrom
Library\Bee\artifacts\movedfrom\UnityEngine.UnityAnalyticsModule.dll_15251478748596286169.movedfrom
Library\Bee\artifacts\movedfrom\UnityEngine.UnityConnectModule.dll_14126730641349664653.movedfrom
Library\Bee\artifacts\movedfrom\UnityEngine.UnityCurlModule.dll_7822344798550003821.movedfrom
Library\Bee\artifacts\movedfrom\UnityEngine.UnityTestProtocolModule.dll_12343002261188369243.movedfrom
Library\Bee\artifacts\movedfrom\UnityEngine.UnityWebRequestAssetBundleModule.dll_7298980805443407978.movedfrom
Library\Bee\artifacts\movedfrom\UnityEngine.UnityWebRequestAudioModule.dll_9752604811108088750.movedfrom
Library\Bee\artifacts\movedfrom\UnityEngine.UnityWebRequestModule.dll_4099264515557515084.movedfrom
Library\Bee\artifacts\movedfrom\UnityEngine.UnityWebRequestTextureModule.dll_17005430215973663555.movedfrom
Library\Bee\artifacts\movedfrom\UnityEngine.UnityWebRequestWWWModule.dll_13881833794102869631.movedfrom
Library\Bee\artifacts\movedfrom\UnityEngine.VehiclesModule.dll_11263322896350494927.movedfrom
Library\Bee\artifacts\movedfrom\UnityEngine.VFXModule.dll_720776190860111364.movedfrom
Library\Bee\artifacts\movedfrom\UnityEngine.VideoModule.dll_4461019084009405207.movedfrom
Library\Bee\artifacts\movedfrom\UnityEngine.VirtualTexturingModule.dll_17170248822312532277.movedfrom
Library\Bee\artifacts\movedfrom\UnityEngine.VRModule.dll_15488687132488492580.movedfrom
Library\Bee\artifacts\movedfrom\UnityEngine.WindModule.dll_5609651719910982592.movedfrom
Library\Bee\artifacts\movedfrom\UnityEngine.XRModule.dll_698517430499947394.movedfrom