{
"instructions_readme": "1) Open Chrome, 2) go to chrome://tracing, 3) click Load, 4) navigate to this file.",
"traceEvents":[
{ "cat":"", "pid":1, "tid":0, "ts":0, "ph":"M", "name":"process_name", "args": { "name":"tundra" } }
,{ "pid":1, "tid":0, "ts":93325051305, "dur":498, "ph":"X", "name": "DriverCheckDagSignatures",  "args": { "durationMS":0, "detail":"" }}
,{ "pid":1, "tid":0, "ts":93325051803, "dur":1387, "ph":"X", "name": "DriverInitData",  "args": { "durationMS":1, "detail":"" }}
,{ "pid":1, "tid":0, "ts":93325053310, "dur":9, "ph":"X", "name": "Tundra",  "args": { "durationMS":0, "detail":"RemoveStaleOutputs" }}
,{ "pid":1, "tid":0, "ts":93325053331, "dur":1, "ph":"X", "name": "Tundra",  "args": { "durationMS":0, "detail":"PrepareNodes" }}
,{ "pid":1, "tid":0, "ts":93325053332, "dur":400, "ph":"X", "name": "Tundra",  "args": { "durationMS":0, "detail":"BuildQueueInit" }}
,{ "pid":1, "tid":0, "ts":93325060446, "dur":11354, "ph":"X", "name": "JoinBuildThread",  "args": { "durationMS":11, "detail":"" }}
,{ "pid":1, "tid":0, "ts":93325071870, "dur":3, "ph":"X", "name": "JoinBuildThread",  "args": { "durationMS":0, "detail":"" }}
,{ "pid":1, "tid":0, "ts":93325071886, "dur":1, "ph":"X", "name": "JoinBuildThread",  "args": { "durationMS":0, "detail":"" }}
,{ "pid":1, "tid":0, "ts":93325071901, "dur":2, "ph":"X", "name": "JoinBuildThread",  "args": { "durationMS":0, "detail":"" }}
,{ "pid":1, "tid":0, "ts":93325071914, "dur":2, "ph":"X", "name": "JoinBuildThread",  "args": { "durationMS":0, "detail":"" }}
,{ "pid":1, "tid":0, "ts":93325071936, "dur":3, "ph":"X", "name": "JoinBuildThread",  "args": { "durationMS":0, "detail":"" }}
,{ "pid":1, "tid":0, "ts":93325071945, "dur":2, "ph":"X", "name": "JoinBuildThread",  "args": { "durationMS":0, "detail":"" }}
,{ "pid":1, "tid":0, "ts":93325071952, "dur":1, "ph":"X", "name": "JoinBuildThread",  "args": { "durationMS":0, "detail":"" }}
,{ "pid":1, "tid":0, "ts":93325071959, "dur":2, "ph":"X", "name": "JoinBuildThread",  "args": { "durationMS":0, "detail":"" }}
,{ "pid":1, "tid":0, "ts":93325071966, "dur":1, "ph":"X", "name": "JoinBuildThread",  "args": { "durationMS":0, "detail":"" }}
,{ "pid":1, "tid":0, "ts":93325071972, "dur":2, "ph":"X", "name": "JoinBuildThread",  "args": { "durationMS":0, "detail":"" }}
,{ "pid":1, "tid":0, "ts":93325071978, "dur":2, "ph":"X", "name": "JoinBuildThread",  "args": { "durationMS":0, "detail":"" }}
,{ "pid":1, "tid":0, "ts":93325071985, "dur":0, "ph":"X", "name": "SharedResourceDestroy",  "args": { "durationMS":0, "detail":"" }}
,{ "pid":1, "tid":0, "ts":93325071994, "dur":1102, "ph":"X", "name": "Tundra",  "args": { "durationMS":1, "detail":"Write AllBuiltNodes" }}
,{ "pid":1, "tid":1, "ts":93325053797, "dur":6508, "ph":"X", "name": "CheckInputSignature",  "args": { "durationMS":7, "detail":"Il2Cpp C:/ArcadeRacing/Library/Il2cppBuildCache/UWP/x64/il2cppOutput/Data/Metadata/global-metadata.dat" }}
,{ "pid":1, "tid":1, "ts":93325060421, "dur":1, "ph":"X", "name": "CheckInputSignature",  "args": { "durationMS":0, "detail":"all_tundra_nodes" }}
,{ "pid":1, "tid":1, "ts":93325060424, "dur":35, "ph":"X", "name": "WaitingForWork", "cname":"thread_state_sleeping",  "args": { "durationMS":0, "detail":"" }}
,{ "pid":1, "tid":1, "ts":93325060459, "dur":11147, "ph":"X", "name": "Exiting",  "args": { "durationMS":11, "detail":"BuildLoop" }}
,{ "pid":1, "tid":2, "ts":93325053816, "dur":6630, "ph":"X", "name": "WaitingForWork", "cname":"thread_state_sleeping",  "args": { "durationMS":7, "detail":"" }}
,{ "pid":1, "tid":2, "ts":93325060446, "dur":11164, "ph":"X", "name": "Exiting",  "args": { "durationMS":11, "detail":"BuildLoop" }}
,{ "pid":1, "tid":3, "ts":93325053813, "dur":6636, "ph":"X", "name": "WaitingForWork", "cname":"thread_state_sleeping",  "args": { "durationMS":7, "detail":"" }}
,{ "pid":1, "tid":3, "ts":93325060449, "dur":11161, "ph":"X", "name": "Exiting",  "args": { "durationMS":11, "detail":"BuildLoop" }}
,{ "pid":1, "tid":4, "ts":93325053848, "dur":6599, "ph":"X", "name": "WaitingForWork", "cname":"thread_state_sleeping",  "args": { "durationMS":7, "detail":"" }}
,{ "pid":1, "tid":4, "ts":93325060448, "dur":11162, "ph":"X", "name": "Exiting",  "args": { "durationMS":11, "detail":"BuildLoop" }}
,{ "pid":1, "tid":5, "ts":93325053877, "dur":6570, "ph":"X", "name": "WaitingForWork", "cname":"thread_state_sleeping",  "args": { "durationMS":7, "detail":"" }}
,{ "pid":1, "tid":5, "ts":93325060447, "dur":11163, "ph":"X", "name": "Exiting",  "args": { "durationMS":11, "detail":"BuildLoop" }}
,{ "pid":1, "tid":6, "ts":93325053902, "dur":6543, "ph":"X", "name": "WaitingForWork", "cname":"thread_state_sleeping",  "args": { "durationMS":7, "detail":"" }}
,{ "pid":1, "tid":6, "ts":93325060446, "dur":11165, "ph":"X", "name": "Exiting",  "args": { "durationMS":11, "detail":"BuildLoop" }}
,{ "pid":1, "tid":7, "ts":93325053930, "dur":6527, "ph":"X", "name": "WaitingForWork", "cname":"thread_state_sleeping",  "args": { "durationMS":7, "detail":"" }}
,{ "pid":1, "tid":7, "ts":93325060457, "dur":11151, "ph":"X", "name": "Exiting",  "args": { "durationMS":11, "detail":"BuildLoop" }}
,{ "pid":1, "tid":8, "ts":93325053961, "dur":6484, "ph":"X", "name": "WaitingForWork", "cname":"thread_state_sleeping",  "args": { "durationMS":6, "detail":"" }}
,{ "pid":1, "tid":8, "ts":93325060445, "dur":11189, "ph":"X", "name": "Exiting",  "args": { "durationMS":11, "detail":"BuildLoop" }}
,{ "pid":1, "tid":9, "ts":93325053985, "dur":6471, "ph":"X", "name": "WaitingForWork", "cname":"thread_state_sleeping",  "args": { "durationMS":6, "detail":"" }}
,{ "pid":1, "tid":9, "ts":93325060456, "dur":11151, "ph":"X", "name": "Exiting",  "args": { "durationMS":11, "detail":"BuildLoop" }}
,{ "pid":1, "tid":10, "ts":93325054013, "dur":6445, "ph":"X", "name": "WaitingForWork", "cname":"thread_state_sleeping",  "args": { "durationMS":6, "detail":"" }}
,{ "pid":1, "tid":10, "ts":93325060459, "dur":11148, "ph":"X", "name": "Exiting",  "args": { "durationMS":11, "detail":"BuildLoop" }}
,{ "pid":1, "tid":11, "ts":93325054035, "dur":6425, "ph":"X", "name": "WaitingForWork", "cname":"thread_state_sleeping",  "args": { "durationMS":6, "detail":"" }}
,{ "pid":1, "tid":11, "ts":93325060460, "dur":11147, "ph":"X", "name": "Exiting",  "args": { "durationMS":11, "detail":"BuildLoop" }}
,{ "pid":1, "tid":12, "ts":93325054062, "dur":6399, "ph":"X", "name": "WaitingForWork", "cname":"thread_state_sleeping",  "args": { "durationMS":6, "detail":"" }}
,{ "pid":1, "tid":12, "ts":93325060461, "dur":11145, "ph":"X", "name": "Exiting",  "args": { "durationMS":11, "detail":"BuildLoop" }}

]
}
