Library\Bee\artifacts\movedfrom\Unity.PlasticSCM.Editor.ref.dll_2700729535869450326.movedfrom
Library\Bee\artifacts\movedfrom\Unity.Rider.Editor.ref.dll_11193012430168537007.movedfrom
Library\Bee\artifacts\movedfrom\Unity.Sysroot.Linux_x86_64.ref.dll_2650282225779114623.movedfrom
Library\Bee\artifacts\movedfrom\Unity.SysrootPackage.Editor.ref.dll_5890034076136684556.movedfrom
Library\Bee\artifacts\movedfrom\Unity.TextMeshPro.Editor.ref.dll_1557689244747631494.movedfrom
Library\Bee\artifacts\movedfrom\Unity.TextMeshPro.ref.dll_9557809654341403355.movedfrom
Library\Bee\artifacts\movedfrom\Unity.Timeline.Editor.ref.dll_953984715949700626.movedfrom
Library\Bee\artifacts\movedfrom\Unity.Timeline.ref.dll_7069769579887910799.movedfrom
Library\Bee\artifacts\movedfrom\Unity.Toolchain.Win-x86_64-Linux-x86_64.ref.dll_2471157762736460776.movedfrom
Library\Bee\artifacts\movedfrom\Unity.VSCode.Editor.ref.dll_3902429132378491929.movedfrom
Library\Bee\artifacts\movedfrom\Unity.VisualStudio.Editor.ref.dll_4221946230532187309.movedfrom
Library\Bee\artifacts\movedfrom\UnityEditor.TestRunner.ref.dll_1819107689489022899.movedfrom
Library\Bee\artifacts\movedfrom\UnityEditor.UI.ref.dll_5519394401220875509.movedfrom
Library\Bee\artifacts\movedfrom\UnityEngine.TestRunner.ref.dll_16527383234446630302.movedfrom
Library\Bee\artifacts\movedfrom\UnityEngine.UI.ref.dll_648142665722821984.movedfrom
Library\Bee\artifacts\movedfrom\UnityEditor.Graphs.dll_13039404627653403786.movedfrom
Library\Bee\artifacts\movedfrom\UnityEditor.CoreModule.dll_14875777605996606040.movedfrom
Library\Bee\artifacts\movedfrom\UnityEditor.DeviceSimulatorModule.dll_8211740602386600681.movedfrom
Library\Bee\artifacts\movedfrom\UnityEditor.dll_5352832596063397821.movedfrom
Library\Bee\artifacts\movedfrom\UnityEditor.GraphViewModule.dll_5104685414665915886.movedfrom
Library\Bee\artifacts\movedfrom\UnityEditor.PackageManagerUIModule.dll_10817596543423652276.movedfrom
Library\Bee\artifacts\movedfrom\UnityEditor.QuickSearchModule.dll_245385790904246096.movedfrom
Library\Bee\artifacts\movedfrom\UnityEditor.SceneTemplateModule.dll_17281979567674222545.movedfrom
Library\Bee\artifacts\movedfrom\UnityEditor.UIBuilderModule.dll_11195994248379893538.movedfrom
Library\Bee\artifacts\movedfrom\UnityEditor.UIElementsModule.dll_673833247604511380.movedfrom
Library\Bee\artifacts\movedfrom\UnityEditor.UIElementsSamplesModule.dll_2537859052536484889.movedfrom
Library\Bee\artifacts\movedfrom\UnityEditor.UIServiceModule.dll_15299355575385020220.movedfrom
Library\Bee\artifacts\movedfrom\UnityEditor.UnityConnectModule.dll_6812810089108950286.movedfrom
Library\Bee\artifacts\movedfrom\UnityEngine.AccessibilityModule.dll_2484676863310303086.movedfrom
Library\Bee\artifacts\movedfrom\UnityEngine.AIModule.dll_9766825718027281836.movedfrom
Library\Bee\artifacts\movedfrom\UnityEngine.AndroidJNIModule.dll_9773612288869138794.movedfrom
Library\Bee\artifacts\movedfrom\UnityEngine.AnimationModule.dll_1539378399576089236.movedfrom
Library\Bee\artifacts\movedfrom\UnityEngine.ARModule.dll_4683041306917192821.movedfrom
Library\Bee\artifacts\movedfrom\UnityEngine.AssetBundleModule.dll_5138884273338405954.movedfrom
Library\Bee\artifacts\movedfrom\UnityEngine.AudioModule.dll_13403703203891314310.movedfrom
Library\Bee\artifacts\movedfrom\UnityEngine.ClothModule.dll_2372238149118188906.movedfrom
Library\Bee\artifacts\movedfrom\UnityEngine.ClusterInputModule.dll_16008163364325892052.movedfrom
Library\Bee\artifacts\movedfrom\UnityEngine.ClusterRendererModule.dll_8620656061032095853.movedfrom
Library\Bee\artifacts\movedfrom\UnityEngine.CoreModule.dll_17407032948538531203.movedfrom
Library\Bee\artifacts\movedfrom\UnityEngine.CrashReportingModule.dll_11941726584497340667.movedfrom
Library\Bee\artifacts\movedfrom\UnityEngine.DirectorModule.dll_5470352399980229728.movedfrom
Library\Bee\artifacts\movedfrom\UnityEngine.dll_9001952089251853474.movedfrom
Library\Bee\artifacts\movedfrom\UnityEngine.DSPGraphModule.dll_5853546948801840513.movedfrom
Library\Bee\artifacts\movedfrom\UnityEngine.GameCenterModule.dll_12821786290524582491.movedfrom
Library\Bee\artifacts\movedfrom\UnityEngine.GIModule.dll_2289804759480749510.movedfrom
Library\Bee\artifacts\movedfrom\UnityEngine.GridModule.dll_14916854539003720570.movedfrom
Library\Bee\artifacts\movedfrom\UnityEngine.HotReloadModule.dll_10855283161153633814.movedfrom
Library\Bee\artifacts\movedfrom\UnityEngine.ImageConversionModule.dll_16398933027017168993.movedfrom
Library\Bee\artifacts\movedfrom\UnityEngine.IMGUIModule.dll_17465843856563409511.movedfrom
Library\Bee\artifacts\movedfrom\UnityEngine.InputLegacyModule.dll_15606687000443161139.movedfrom
Library\Bee\artifacts\movedfrom\UnityEngine.InputModule.dll_2339985855037121322.movedfrom
Library\Bee\artifacts\movedfrom\UnityEngine.JSONSerializeModule.dll_9408830706193887224.movedfrom
Library\Bee\artifacts\movedfrom\UnityEngine.LocalizationModule.dll_2050604675275494093.movedfrom
Library\Bee\artifacts\movedfrom\UnityEngine.ParticleSystemModule.dll_17927654031839136905.movedfrom
Library\Bee\artifacts\movedfrom\UnityEngine.PerformanceReportingModule.dll_15269293528420234562.movedfrom
Library\Bee\artifacts\movedfrom\UnityEngine.Physics2DModule.dll_7062462734387993129.movedfrom
Library\Bee\artifacts\movedfrom\UnityEngine.PhysicsModule.dll_7847327716498888215.movedfrom
Library\Bee\artifacts\movedfrom\UnityEngine.ProfilerModule.dll_9092998256910170989.movedfrom
Library\Bee\artifacts\movedfrom\UnityEngine.RuntimeInitializeOnLoadManagerInitializerModule.dll_15603476474141908210.movedfrom
Library\Bee\artifacts\movedfrom\UnityEngine.ScreenCaptureModule.dll_11275482063847136346.movedfrom
Library\Bee\artifacts\movedfrom\UnityEngine.SharedInternalsModule.dll_7468645527466644401.movedfrom
Library\Bee\artifacts\movedfrom\UnityEngine.SpriteMaskModule.dll_11176972489989326805.movedfrom
Library\Bee\artifacts\movedfrom\UnityEngine.SpriteShapeModule.dll_6967677064645151820.movedfrom
Library\Bee\artifacts\movedfrom\UnityEngine.StreamingModule.dll_14551664552143755730.movedfrom
Library\Bee\artifacts\movedfrom\UnityEngine.SubstanceModule.dll_12005745692824770528.movedfrom
Library\Bee\artifacts\movedfrom\UnityEngine.SubsystemsModule.dll_417141125529759720.movedfrom
Library\Bee\artifacts\movedfrom\UnityEngine.TerrainModule.dll_9740664125817396997.movedfrom
Library\Bee\artifacts\movedfrom\UnityEngine.TerrainPhysicsModule.dll_17962179603613222678.movedfrom
Library\Bee\artifacts\movedfrom\UnityEngine.TextCoreModule.dll_16475694043558667376.movedfrom
Library\Bee\artifacts\movedfrom\UnityEngine.TextRenderingModule.dll_14247701733284060239.movedfrom
Library\Bee\artifacts\movedfrom\UnityEngine.TilemapModule.dll_2750065408378241038.movedfrom
Library\Bee\artifacts\movedfrom\UnityEngine.TLSModule.dll_6132796405106788651.movedfrom
Library\Bee\artifacts\movedfrom\UnityEngine.UIElementsModule.dll_722930049595255775.movedfrom
Library\Bee\artifacts\movedfrom\UnityEngine.UIElementsNativeModule.dll_16184115528359154134.movedfrom
Library\Bee\artifacts\movedfrom\UnityEngine.UIModule.dll_9439081287818242904.movedfrom
Library\Bee\artifacts\movedfrom\UnityEngine.UmbraModule.dll_3807847519318944249.movedfrom
Library\Bee\artifacts\movedfrom\UnityEngine.UNETModule.dll_9527501517846205180.movedfrom
Library\Bee\artifacts\movedfrom\UnityEngine.UnityAnalyticsModule.dll_1759573906081341061.movedfrom
Library\Bee\artifacts\movedfrom\UnityEngine.UnityConnectModule.dll_5470601125043457465.movedfrom
Library\Bee\artifacts\movedfrom\UnityEngine.UnityCurlModule.dll_5222374228564137089.movedfrom
Library\Bee\artifacts\movedfrom\UnityEngine.UnityTestProtocolModule.dll_16067435335607232879.movedfrom
Library\Bee\artifacts\movedfrom\UnityEngine.UnityWebRequestAssetBundleModule.dll_15800341127372889366.movedfrom
Library\Bee\artifacts\movedfrom\UnityEngine.UnityWebRequestAudioModule.dll_5468427054558183386.movedfrom
Library\Bee\artifacts\movedfrom\UnityEngine.UnityWebRequestModule.dll_17668675073868575456.movedfrom
Library\Bee\artifacts\movedfrom\UnityEngine.UnityWebRequestTextureModule.dll_4861521144896681199.movedfrom
Library\Bee\artifacts\movedfrom\UnityEngine.UnityWebRequestWWWModule.dll_1093516432054514987.movedfrom
Library\Bee\artifacts\movedfrom\UnityEngine.VehiclesModule.dll_14100086561881244667.movedfrom
Library\Bee\artifacts\movedfrom\UnityEngine.VFXModule.dll_15418823488602649240.movedfrom
Library\Bee\artifacts\movedfrom\UnityEngine.VideoModule.dll_16072513052150798891.movedfrom
Library\Bee\artifacts\movedfrom\UnityEngine.VirtualTexturingModule.dll_371049724929217121.movedfrom
Library\Bee\artifacts\movedfrom\UnityEngine.VRModule.dll_15406956099423432912.movedfrom
Library\Bee\artifacts\movedfrom\UnityEngine.WindModule.dll_7485280986769349612.movedfrom
Library\Bee\artifacts\movedfrom\UnityEngine.XRModule.dll_616786397434887726.movedfrom
Library\Bee\artifacts\movedfrom\UnityEditor.WebGL.Extensions.dll_8371227970928627160.movedfrom
Library\Bee\artifacts\movedfrom\UnityEditor.WindowsStandalone.Extensions.dll_6508199453741726920.movedfrom
Library\Bee\artifacts\movedfrom\Unity.Plastic.Antlr3.Runtime.dll_17990230773517566253.movedfrom